 (-2.715478578619985872e-01-6.983097904492316377e-02j), (-3.510682177688758121e-01-3.489826373250374814e-01j), (1.051341730395665558e-01+2.380008065359898173e-02j), (-1.012676371546198939e-01-1.106910068313086970e-01j), (-3.135373462939823608e-02-7.353767108015839271e-02j), (8.317588078221528625e-02-1.358862320998791839e-01j), (-8.845315794291785938e-02-3.475344854943092643e-01j), (-4.633823952355572984e-02-3.028492414778806430e-02j), (1.154873579414329166e-01+1.781895182607844130e-01j), (-3.157395654030244192e-02-2.208566742866315269e-01j), (1.121980478893989421e-02-7.736573029796355028e-02j), (3.191098147796502665e-02-2.815826878670319583e-02j), (3.895523202652526745e-02+5.567941714795641983e-02j), (-1.946527973420751623e-01-3.724145542023479249e-01j), (8.055086040582505602e-03-1.050720163899878934e-01j), (-6.236513856712778275e-02+3.890906494904511348e-02j), (4.314019255983739948e-02-1.069187140600410257e-01j), (-3.830996018912895956e-02+1.176918514817789085e-01j), (1.522088831729092873e-01-1.691140772721861085e-01j)
 (4.663010110903307304e-01+1.623507733047612200e-01j), (1.004492574792935182e-02-1.095739750175733357e-01j), (-9.105763910719288923e-02-9.022763134759210352e-03j), (-6.730045801142517381e-02+4.547865935942638910e-02j), (1.682876310789022112e-01+1.290384903285135276e-01j), (-1.354808063550978492e-01+3.003212454810996745e-01j), (-3.762583995164166251e-02+6.864805171918626769e-03j), (-4.857515062399297978e-02+3.575135323364895396e-02j), (8.962689230432427379e-02+4.844274854827829158e-02j), (1.631402457297040087e-01-2.182018997278159789e-01j), (4.502679992106764506e-02-3.229904648021195146e-02j), (5.111617942877990511e-02+6.650211165468875030e-02j), (2.920920496708995576e-02+1.182358056317241694e-04j), (-2.431936060475825834e-01-1.489008158687286087e-01j), (6.351325985244152435e-03-4.421514506094900016e-02j), (-2.948531039168214227e-02-1.914504088530355128e-02j), (3.161792290249941240e-01-6.607222820702898791e-02j), (-5.568569328461407675e-02-2.031029698053155863e-01j), (-1.697906861354349928e-01-4.336557313173856204e-03j)
 (-1.421154778904037408e-01+5.323178075278509058e-02j), (-5.514567511925026061e-02+2.384303440867627938e-02j), (2.521612700788475880e-01+4.238476325663905198e-01j), (6.198588881711154103e-02+3.183720724693509530e-01j), (4.819867612606543172e-02-1.577400693910163687e-02j), (5.323756904286006120e-02+3.724916353215902975e-01j), (1.862498871867735925e-02+4.271742226608511994e-01j), (-6.763643261954067768e-04+1.851403672689208926e-02j), (2.407576885363874597e-01+2.803316165473305754e-01j), (7.594120150511310396e-02+2.580551563381814489e-02j), (2.261421475129797923e-02+3.679175218996357660e-02j), (-1.141764836268580469e-01+2.636048915903750969e-02j), (-5.837039830053920159e-02+3.723926257630851694e-02j), (-1.239315580350649204e-01-1.679837915206112975e-01j), (1.141779220337112155e-01+7.213504076291321274e-03j), (1.222015050036513728e-01+2.705640138339083720e-02j), (-1.105304719814584058e-01+1.783814738538567202e-01j), (-8.103279698636528527e-02+6.702927411372909539e-02j), (7.115176186546981474e-02+8.603547398960963155e-02j)
 (-1.399257407359589256e-01-6.728749986674145700e-02j), (1.008155951636471453e-01+3.141752584484450855e-02j), (1.739276827717761986e-01-8.060289379654576869e-02j), (3.720033367214145570e-02+2.759472599987239719e-02j), (4.435525760291337827e-01+7.367128820746314359e-03j), (-6.467554946005601990e-02+4.885312433793946585e-02j), (-1.415083257961570751e-01+3.054524890677941251e-02j), (7.029522039674442058e-02-4.864132316857888196e-03j), (9.034622069013921453e-02+5.388219737492870587e-02j), (5.296956962017499576e-02-1.697537944210103858e-02j), (6.129501568255227469e-03+2.099874442954469123e-01j), (5.133806709072735730e-02-4.640679492309184861e-01j), (-2.779584894487492908e-01-1.347284697297354006e-01j), (5.532815712650300533e-02-1.525669171103725616e-02j), (1.327425988897337761e-01-4.345248036392898583e-02j), (7.606530085230077398e-02-3.246179350675677810e-02j), (-8.073860917297819711e-03+2.289668870459111299e-02j), (9.382289673647740968e-02+2.445799417184000429e-02j), (6.733848524006498526e-03-1.208223676901815959e-02j)
 (7.715213224630165789e-02+1.674606174313361673e-02j), (2.188558533958354368e-01+3.407747669007943347e-02j), (-1.864420233751645783e-02-2.625952293278615082e-02j), (-2.448397474657419970e-01+3.129647196199492054e-01j), (-1.984682562134477135e-01+5.642096967640628652e-02j), (2.237366768594401534e-01-4.120487254078157580e-02j), (-8.235831255121295325e-02-1.897795443971940221e-01j), (-1.545707211662616931e-01-2.707760171980226893e-01j), (-1.476849614560396540e-02+2.574365914351170112e-02j), (-5.370016033007237594e-02-5.512244309616275845e-02j), (-8.739619828089124909e-02+2.972801282571956305e-01j), (-2.788914688169749079e-01+1.350919428827855873e-01j), (-7.030163042196448109e-02-3.000357198473406206e-01j), (9.554584045094757783e-02+1.072822518504219086e-01j), (1.290197809542475427e-01-2.107603218359684061e-01j), (-2.743345110259301847e-02-9.014773472678581923e-02j), (5.375804961465753540e-02+8.061815635265298652e-02j), (-5.217278223244844332e-02+3.327785590887991779e-02j), (4.157679032328204238e-02-1.630405019167533581e-02j)
 (8.734087673869199431e-02-1.062854177056199029e-01j), (2.838578427430556994e-01-1.855624273900565169e-01j), (2.281397939092395799e-01-2.117636388634785427e-01j), (-1.969536458786860234e-01-3.501670135446519061e-02j), (-1.624875545822194178e-01-2.140793412959770270e-01j), (1.078085845379935653e-01-1.054299103793196885e-01j), (-4.495987441349144076e-01+2.549882965628753051e-01j), (3.576041285675922443e-02+7.646190375674831452e-02j), (-3.195507173922597366e-02+5.315810697425028125e-02j), (1.717541854305732196e-01+4.336157847492697753e-02j), (-1.681748509380366075e-01-1.500462125205489494e-01j), (-4.002382175708672080e-02-7.766427471636841440e-02j), (2.191265098364186259e-01+3.985069561724700199e-02j), (7.502416116682945890e-02-1.362444047701172056e-01j), (3.499012032318509977e-03+1.802817118968826626e-01j), (-6.463212451684098581e-02+2.635171302188805964e-02j), (1.981603269890479802e-01+3.544498266524566399e-02j), (-1.053398349243285514e-02+9.472457825168739687e-02j), (5.926256214958341290e-02-3.649951144550944021e-02j)
 (-3.816701133651645983e-01-4.789015086403706871e-03j), (5.667166153831877662e-02-5.334651573895738373e-03j), (-1.827074467265626945e-01-2.336719615605043210e-01j), (1.118547847450272227e-02+8.769468175919502284e-02j), (2.495577190243279952e-01+2.004498099907948416e-01j), (2.012418201889997760e-01+4.559930843889257734e-01j), (-4.714951027301728104e-02-1.066936840048702539e-01j), (-1.612010875205749649e-01+1.316638145971913421e-01j), (-1.077802338197824672e-01-7.050771436857730667e-02j), (-5.613086797636870212e-02+5.173252622306570569e-02j), (-1.440602946954403218e-01-6.454199333764841506e-02j), (1.624304079868363615e-01+9.712718669427751472e-02j), (9.157647710882549363e-02-2.367999611125930215e-02j), (3.571906493548606537e-02-5.673125644274949059e-02j), (9.218038661203002693e-02+3.246557221795423609e-02j), (-2.978810538751936973e-04+2.791499745972101862e-02j), (-1.062321604557771026e-01+8.625378165586987389e-02j), (2.177303402212393824e-01-1.422148124432683763e-02j), (1.673696429204892533e-01+4.214774757970193159e-02j)
 (-4.374968478369890834e-02+1.676079000056501789e-02j), (1.981589040006577832e-02-5.931534299793420062e-02j), (8.046122156633887454e-03-3.458532034470772343e-02j), (-1.105783219390304856e-01-8.461767383399136644e-02j), (2.411376917917683604e-01+1.349973877034758019e-01j), (8.602487568050926070e-02+1.046038098142594098e-03j), (-7.984467279299586884e-02+1.600794439016870740e-01j), (4.039254010213617074e-01-5.666672705854461922e-01j), (8.099936054804905694e-04-6.965228614853605227e-02j), (-1.842940229052720535e-01-1.309667241471787202e-01j), (4.769145258853390440e-02-1.349060238874719431e-01j), (8.774010975709391202e-02+1.521180641058346716e-01j), (-1.615989134787543940e-02+9.315538433316723765e-02j), (5.410642370884864716e-02+2.624379097587969598e-02j), (-3.946174397350130092e-02-2.585256416693267750e-02j), (8.799225971402299673e-03+4.977235893566719221e-02j), (-5.955322002947597421e-02+2.225393339220127498e-02j), (2.600148204791395690e-02+2.195351472422688369e-02j), (5.913144225853862734e-02-1.863212867872887646e-03j)
 (2.101853044134429915e-01-7.326298355129830242e-02j), (-2.848832383806142871e-02+2.541612374104589706e-02j), (-2.027517973299710619e-01-2.371353436227160161e-01j), (-1.250409997514095178e-02-7.349857916228422217e-02j), (-1.724830357252249771e-02+3.553777747421225236e-02j), (-7.237962359144199664e-02+8.457530299764318138e-02j), (-1.281708695301385648e-01+1.681717421770446280e-02j), (-3.032288145280679151e-02+1.280891938641029112e-02j), (7.667650324197917699e-01+8.362639201135645128e-02j), (4.982824915189155296e-02-1.004757664769884984e-01j), (-2.601055819843204817e-02-6.281683575919143336e-02j), (3.440138222198066420e-02+2.321461619573398499e-02j), (5.584732036609207223e-02-1.352689325977609984e-02j), (2.941396811512468346e-01-6.865019660023014003e-02j), (3.275035275217174496e-02+2.522258320597706854e-02j), (2.707116441518573821e-02-1.404359005698918930e-02j), (-1.413171852696256114e-01+5.904244532854621696e-02j), (6.638048722652931111e-03+7.841569921591730330e-02j), (6.499638784508064704e-02+1.196042270639862820e-01j)
 (-2.103873012815996313e-01-4.016362787396164646e-02j), (6.386943081326887373e-02+2.611514577823257910e-01j), (2.825079524431112557e-02-7.388412769608139474e-02j), (-3.274024122688302951e-02-2.759094328809746227e-02j), (3.931808452782546009e-02+8.139346319514109696e-02j), (2.044087132067307078e-02-1.287492652205391441e-01j), (-4.237935054038448335e-02+1.177043605816979199e-01j), (-1.554885904130704211e-01-1.047392708767350827e-01j), (7.761231988944615467e-02+1.882583250794934993e-01j), (7.131015149349216875e-01-1.101462607362564683e-01j), (8.870172102240429790e-02-9.981594103687327357e-02j), (1.664645894362946563e-02+1.211463117028708791e-01j), (-8.911687271895275819e-02+1.847716047547800708e-02j), (-1.198835113463567192e-01+1.161152448224500172e-01j), (-1.264541798538763688e-02+1.355866774050203394e-01j), (5.164875222405202609e-02+5.658975032990157944e-02j), (-2.140094376868074688e-01-1.993305930732926501e-01j), (-1.499894083413903512e-01-9.481032738574923791e-03j), (4.479304745458188158e-02-2.001367052751912290e-02j)
 (-6.319025942725810252e-02+3.404420484035051292e-02j), (3.419320103256252158e-02+3.866206454921649466e-02j), (-1.042731380696853465e-03-2.044603892442175413e-02j), (4.414225704049774129e-02-1.991887566517093477e-01j), (-3.018354881872632456e-01-2.147383586900151672e-02j), (6.502583468659242638e-02+2.450734718022479774e-01j), (-1.217782842655575071e-01+6.747563548311293069e-02j), (-4.739792540426177730e-02-7.197500221236699525e-02j), (-2.035931613990278957e-02+6.566908942131177707e-02j), (2.683674326407353705e-02-2.637966796838258840e-04j), (6.819971215033696632e-01+3.127996350504519407e-02j), (1.065990952017252663e-01-9.559502457592845837e-02j), (2.396912540791222568e-01-2.433728577030221385e-01j), (-2.451588775097284650e-02+2.143212934128814473e-02j), (4.978731585978119628e-02+4.484495139078637643e-02j), (7.142070747805394360e-02-8.193351597172714162e-02j), (-8.396369351019360161e-03-7.021145261924649841e-03j), (1.662632494096308589e-01+5.995483331044215713e-02j), (5.750665725149353702e-02-1.857201768508816297e-02j)
 (4.054316893580620779e-02+2.528605816614097612e-02j), (7.798808201274232133e-02-3.146591146309962034e-02j), (1.133230461488941507e-02+1.187097386561598161e-01j), (4.500253423950184017e-01-1.310917429961696301e-01j), (-3.135115162628440613e-03+3.216992384776397595e-01j), (8.492290610388252003e-02-6.093726175944670989e-03j), (-1.183255085603864831e-01-1.526079369794859641e-01j), (-1.767736435996247191e-01-5.026054035811181042e-02j), (-3.826660261271001146e-02-1.179528094783036454e-03j), (-9.360534515299558100e-02-8.326082810908437548e-02j), (-1.663018838684723888e-01+3.100773017084237915e-02j), (-2.181954313784296717e-01-1.214144874829586884e-01j), (2.157753458892708864e-01+1.101911550674466028e-01j), (-8.856422742597173936e-02+1.656773292124535252e-02j), (-3.724249060863189797e-02+8.216522375652152155e-02j), (3.013998795315687151e-01-2.015471430873526024e-02j), (-1.621551979623582218e-01-6.919044436059709757e-02j), (2.280612490471572995e-02-1.398016552386891209e-01j), (5.372394722715224946e-02+1.477379364553079444e-01j)
 (6.499893117993497949e-02-9.081171847234416816e-04j), (-2.124783890879045067e-02+1.708464687192560311e-02j), (6.931855703728859912e-04-2.134713648459513405e-02j), (-1.828311790981731189e-01+2.283215558907596976e-01j), (1.159332863244992157e-01+2.927558405489745774e-01j), (1.428021479637532065e-01-1.806550196536819697e-01j), (9.117923655143567174e-02+5.927366428401867338e-02j), (-5.060592942077150880e-02+3.564010534193895463e-02j), (6.825055083767182784e-02-2.339973433605126163e-02j), (-8.722883795652772165e-02-3.370557419032173697e-03j), (2.885222800038909630e-01+1.810241747879714203e-01j), (-6.034328036746267054e-02-2.240809530710258235e-01j), (3.245184371423694425e-01+2.093991289474457507e-01j), (9.522770415660813947e-02-5.792571391058076030e-02j), (7.930234801619363838e-02+1.590918336741362904e-01j), (-1.650651853879364916e-01+7.600829638825094825e-02j), (-7.643306379294356745e-02-1.157513167842089546e-01j), (-1.751592427987267997e-01-2.694348652178146231e-01j), (1.391921906874371562e-01-3.243513040179718532e-02j)
 (-4.086944727243855269e-01-1.190910810065554937e-01j), (2.906960597956492198e-01+6.103983520034371446e-02j), (9.749390017215976700e-02+1.765839572015683590e-01j), (3.379279556365187565e-02-3.041494687068625052e-02j), (-8.093478470492550259e-02-1.341006227325201028e-01j), (-3.666738767889951567e-02-1.308585765009228630e-01j), (4.529564535388022617e-02+3.022549984624910840e-02j), (5.180517994810714816e-02+7.471409636402330523e-02j), (3.045448301241842071e-01-1.563646195009764329e-03j), (-1.429452390940275375e-01-3.303095915410987626e-02j), (7.687718030916084432e-03-2.163526446321004104e-02j), (1.375663032977688868e-02+1.082623555080885064e-01j), (9.661957192725305343e-02+2.149620997011987555e-02j), (9.159911228536474215e-02-2.854904851330066634e-02j), (9.326490690082193946e-02-8.488000871308103157e-02j), (-8.610850824811301651e-02+2.801959664659270030e-02j), (1.173605755510598869e-01-2.081063300229180069e-01j), (3.357928432080285741e-02-3.756229939460365430e-01j), (-3.408543595909898083e-01+4.257948776411431269e-02j)
 (3.422691631556287750e-02+1.059724475836884144e-01j), (1.594530580982007765e-03-4.874307564103864954e-02j), (6.175520279186792749e-02+5.439476321856487329e-02j), (-5.306499362261361818e-02+8.487594304597138872e-02j), (2.136087582401192675e-01-1.358450344008422239e-01j), (-7.214847270272176094e-02-1.704565241898636785e-01j), (-1.600431760971211467e-02-4.919127203086180039e-02j), (-1.333740675304063462e-02+3.723301644174864533e-02j), (-2.578987717132612874e-03-5.097811892431592003e-03j), (1.261185217731969621e-01-4.538582575769777028e-02j), (6.049040062986056621e-02-4.225507324567669143e-02j), (-7.557486669805961454e-02-4.448438420136483634e-02j), (3.106033490492291632e-02-1.783055243431981296e-01j), (-1.306305443597673699e-01+2.498508250375874873e-02j), (3.042845647509296800e-02-6.430297691587112674e-02j), (-3.522703938776534927e-02+3.642581019636693257e-02j), (5.745205720004281646e-02-1.601217720103527142e-01j), (4.765685485603905480e-01-7.514591745220861041e-02j), (1.617448316954942789e-01+4.414192949475860828e-01j)
 (4.286496033300152969e-02-9.365471467231756275e-02j), (-1.368489891239988154e-01+1.768290086663457453e-02j), (3.186653747596811942e-02-1.241736467738324134e-01j), (5.587137946877866052e-02-7.601963801205982585e-02j), (1.773940725104444088e-02+1.298699728408157263e-02j), (4.106091611425982668e-02+6.661279327045695198e-02j), (-8.026738563542269722e-02-5.402539345922321296e-02j), (-4.530446902091347927e-02+8.334211810828817679e-02j), (-5.091043734707875051e-02+4.250166042465548799e-02j), (6.596331282312709043e-02-1.570055886412227361e-02j), (1.434292966397838045e-03+1.552143754701649503e-01j), (-1.216141534425177750e-01-2.592734054698975221e-01j), (-1.517402371782815840e-01-9.977429930387263224e-02j), (-3.401520641180116053e-04-4.713245130093925844e-02j), (-1.293215126748415399e-02-3.271170170716954095e-02j), (4.573416034013704640e-02-9.692233403645995893e-02j), (3.223143279940800243e-02+1.939512424462286333e-01j), (-1.312024967804503173e-01-1.623323233421447576e-01j), (-1.921734665472285275e-01-3.419009623081370464e-02j)
 (-8.002974179744115624e-02+1.077092434476251415e-01j), (2.628988125514822305e-01+2.125972894507980326e-01j), (-2.080577676276623711e-01-1.641210375841418642e-02j), (-9.018757026859886006e-02+5.756966395818644000e-02j), (-5.487932496537982485e-02+3.626186769654080738e-02j), (-1.648651615189928865e-01-1.236885586981702062e-01j), (3.922316885595380359e-03+1.192300920539703657e-01j), (2.443709501660527514e-02+2.739580369100623816e-02j), (4.162788212884298983e-02+8.418822931380909314e-02j), (-2.112875323636089764e-01+1.428258152357968769e-01j), (2.272422229278640501e-02-4.118973148461974043e-02j), (1.341117930764219035e-01+7.488699033274325012e-02j), (-6.842584433304479963e-02+1.437885713619592998e-01j), (-1.801088560799692095e-01-3.875217894865300161e-02j), (1.814399754105284757e-01-4.132623885916486550e-02j), (-1.226372715182869888e-01-1.250716171370261087e-01j), (2.779582387406071553e-01-1.189617275330621948e-01j), (-1.183255168854196598e-01+2.075411982050022197e-01j), (4.435469822480301305e-01+6.176534652152669558e-02j)
 (-8.704424525923537548e-02-8.468368786421009986e-02j), (-1.772777287753048436e-01-1.222094487931218998e-01j), (-1.055712208396279994e-01+8.261593974652983730e-02j), (-8.803438085691606130e-02+6.881174742909004771e-02j), (-4.373785708012260104e-02+4.358927944711297325e-02j), (-9.716814453960351261e-02-3.725635233327706519e-02j), (-2.100951043081654146e-01-8.863115939257175518e-06j), (-3.299071764942118623e-02+1.173954739001688979e-02j), (-2.447973708246994461e-03-6.945529268473308454e-03j), (1.550624629589463788e-01+6.779345917027100599e-02j), (1.788902337335239109e-02-1.732188504329410239e-01j), (1.032193080276160024e-01-9.113454627579103962e-02j), (1.947370501394687925e-01+2.484385374884665043e-01j), (7.751076377410667795e-02+4.172009358071209206e-01j), (2.712179361411904410e-01-4.167016914667507343e-01j), (2.116319536842383719e-01-1.561298533570739666e-01j), (1.070152420522843262e-01+1.787150307793203829e-01j), (-8.743046220487529774e-02-3.379679115999749406e-02j), (2.079512959461894683e-02+1.022395300487549674e-01j)
 (-2.185766316934540932e-01+7.162905577910803900e-02j), (-9.918182448216356084e-02-1.241567981086052486e-01j), (-7.383260791665008371e-02+6.890671539826333236e-02j), (2.708224502670478553e-02+2.825992731465536145e-02j), (2.483803484510860998e-02+3.476452418190554422e-02j), (-5.227318346387394704e-02-5.729170573544911660e-03j), (1.129608454435761106e-01-1.177605153977509811e-01j), (-1.336956889166753155e-02-7.626204617595613855e-02j), (1.006228323006591874e-01-6.971054042690794095e-02j), (-5.772679241919095178e-02-1.072707493057997730e-01j), (3.166171202464639067e-02-8.072507397474434909e-02j), (-1.460794796701153364e-01-2.541695254197498186e-02j), (-2.634881817132130044e-02-1.310549978586729170e-01j), (1.137328983324020076e-01+2.955500456411007670e-01j), (-2.199439065927740189e-01+4.436126267880003970e-01j), (-5.216156372861133206e-02+4.186762073204201851e-02j), (4.144188443754976414e-01+5.275286702286552387e-02j), (-9.519356524013303233e-02+3.699582301949386198e-02j), (2.062263541256923738e-01-9.055693023779934347e-02j)
